{
    "UserId": "847501f4-24f6-42c4-9ffe-8a652a980e89",
    "FuncType": "delete",
    "Model": "locations.model.js",
    "index": "locations",
    "type": "UserLocations",
    "id": "ZmdXW2cB4yZXBnj6nVZs"
}