{
    "FuncType": "post",
    "TableName": "CrudExample",
    "Data": "{\"UserId\": \"user1\",\"CrudId\": \"random\",\"StringExample\": \"This is a string\",\"NumberExample\": 1,\"ObjectExample\": {\"Field1\": \"Value1\",\"Field2\": \"Value2\"},\"ArrayExample\": [{\"RowField1\": \"Row1Value1\",\"RowField2\": \"Row1Value2\"},{\"RowField1\": \"Row2Value1\",\"RowField2\": \"Row2Value2\"}],\"SelectExample\": \"London\",\"CheckBoxExample\": true,\"CheckBoxExample2\": false,\"RadioButton\": \"AP\",\"DateExample\": \"2012-07-27\",\"DateExampleBS\": \"2012-07-27\",\"EmailValidation\": \" \",\"PhoneNumberValidation\": \" \",\"ImageAsBit64\": \" \",\"ImageS3Bucket\": \" \"}"
  }